{
    "$schema": "http://json-schema.org/draft-04/schema#",
    "title": "announce",
    "description": "A product from Acme's catalog",
    "type": "object",
    "properties": {
        "hits": {
            "type": "object",
            "properties": {
                "total": {
                    "type": "integer"
                },
                "hits": {
                    "type": "array",
                    "items": {
                        "type": "object",
                        "properties": {
                            "_id": {
                                "type": "string"
                            },
                            "_source": {
                                "type": "object",
                                "properties": {
                                    "id": {
                                        "type": "integer"
                                    },
                                    "status": {
                                        "type": "string"
                                    },
                                    "type": {
                                        "oneOf": [
                                            {"type": "string"},
                                            {"type": "null"}
                                        ]
                                    },
                                    "company": {
                                        "oneOf": [
                                            {"type": "string"},
                                            {"type": "null"}
                                        ]
                                    },
                                    "title": {
                                        "type": "string"
                                    },
                                    "slug": {
                                        "type": "string"
                                    },
                                    "description": {
                                        "oneOf": [
                                            {"type": "string"},
                                            {"type": "null"}
                                        ]
                                    },
                                    "created_at": {
                                        "type": "string",
                                        "pattern": "^[0-9]{4}-[0-9]{2}-[0-9]{2} [0-9]{2}:[0-9]{2}:[0-9]{2}$"
                                    },
                                    "updated_at": {
                                        "type": "string",
                                        "pattern": "^[0-9]{4}-[0-9]{2}-[0-9]{2} [0-9]{2}:[0-9]{2}:[0-9]{2}$"
                                    },
                                    "published_at": {
                                        "oneOf": [
                                            {"type": "string"},
                                            {"type": "null"}
                                        ],
                                        "pattern": "^[0-9]{4}-[0-9]{2}-[0-9]{2} [0-9]{2}:[0-9]{2}:[0-9]{2}$"
                                    },
                                    "price": {
                                        "type": "object",
                                        "properties": {
                                            "amount": {
                                                "oneOf": [
                                                    {"type": "number"},
                                                    {"type": "null"}
                                                ],
                                                "minimum": 0
                                            },
                                            "note": {
                                                "oneOf": [
                                                    {"type": "string"},
                                                    {"type": "null"}
                                                ]
                                            }
                                        },
                                        "required": [
                                            "amount"
                                        ]
                                    },
                                    "user": {
                                        "type": "object",
                                        "properties": {
                                            "id": {
                                                "type": "integer"
                                            },
                                            "contact": {
                                                "type": "object",
                                                "properties": {
                                                    "id": {
                                                        "type": "integer"
                                                    },
                                                    "fullname": {
                                                        "oneOf": [
                                                            {"type": "string"},
                                                            {"type": "null"}
                                                        ]
                                                    },
                                                    "phone": {
                                                        "oneOf": [
                                                            {"type": "string"},
                                                            {"type": "null"}
                                                        ]
                                                    },
                                                    "phone_note": {
                                                        "oneOf": [
                                                            {"type": "string"},
                                                            {"type": "null"}
                                                        ]
                                                    },
                                                    "email": {
                                                        "oneOf": [
                                                            {"type": "string"},
                                                            {"type": "null"}
                                                        ]
                                                    }
                                                },
                                                "required": [
                                                    "id",
                                                    "fullname",
                                                    "phone",
                                                    "phone_note",
                                                    "email"
                                                ]
                                            }
                                        },
                                        "required": [
                                            "id",
                                            "contact"
                                        ]
                                    }
                                },
                                "required": [
                                    "id",
                                    "status",
                                    "title",
                                    "slug",
                                    "description",
                                    "created_at",
                                    "updated_at",
                                    "published_at",
                                    "price",
                                    "user"
                                ]
                            }
                        },
                        "required": [
                            "_id",
                            "_source"
                        ]
                    }
                }
            },
            "required": [
                "total",
                "hits"
            ]
        }
    },
    "required": [
        "hits"
    ]
}
